{
  "project_name": "Juggler",
  "project_slug": "juggler",
  "description": "Manages multi-instance apps hosted on a Kubernetes cluster",
  "author_name": "simevo s.r.l.",
  "domain_name": "saas.simevo.com",
  "email": "info@simevo.com",
  "version": "0.1.0",
  "open_source_license": "GPLv3",
  "timezone": "UTC",
  "windows": "y",
  "use_pycharm": "n",
  "use_docker": "y",
  "postgresql_version": "13",
  "js_task_runner": "None",
  "cloud_provider": "None",
  "mail_service": "Other SMTP",
  "use_async": "y",
  "use_drf": "n",
  "custom_bootstrap_compilation": "n",
  "use_compressor": "n",
  "use_celery": "n",
  "use_mailhog": "n",
  "use_sentry": "n",
  "use_whitenoise": "y",
  "use_heroku": "n",
  "ci_tool": "Gitlab",
  "keep_local_envs_in_vcs": "y",
  "debug": "n"
}
